{
  "images" : [
    {
      "idiom" : "universal",
      "filename" : "ic_blog_blue.pdf"
    }
  ],
  "info" : {
    "version" : 1,
    "author" : "xcode"
  },
  "properties" : {
    "template-rendering-intent" : "original"
  }
}